…
``` r
stock_agg <- function(stocksTicker,multiplier=1,timespan ='day',from,to,...){
  stock_call <- paste0("https://api.polygon.io/v2/aggs/ticker/",stocksTicker,"/range/",multiplier,'/',timespan,'/',from,'/',to,'?apiKey=GMfXYkoPNPB30oC66QYexyFofBFhe1_t')

# Convert the data into a JSON form and print it as a tibble
stock_parsed <- fromJSON(readLines(stock_call))
stock_result <- as_tibble(stock_parsed$results)
return(stock_result)
}

# Checking out the function
 stock_agg(stocksTicker = 'AAPL',from = '2021-10-11',to ='2022-10-09')
```

    ## # A tibble: 251 x 8
    ##           v    vw     o     c     h     l             t      n
    ##       <dbl> <dbl> <dbl> <dbl> <dbl> <dbl>         <dbl>  <int>
    ##  1 63952219  144.  142.  143.  145.  142. 1633924800000 399220
    ##  2 73035859  142.  143.  142.  143.  141. 1634011200000 526042
    ##  3 78762121  140.  141.  141.  141.  139. 1634097600000 600890
    ##  4 69891600  143.  142.  144.  144.  142. 1634184000000 447186
    ##  5 67642684  144.  144.  145.  145.  144. 1634270400000 429707
    ##  6 85389174  145.  143.  147.  147.  143. 1634529600000 544217
    ##  7 76378894  148.  147.  149.  149.  147. 1634616000000 532883
    ##  8 58418788  149.  149.  149.  150.  148. 1634702400000 437977
    ##  9 61345990  149.  149.  149.  150.  148. 1634788800000 418119
    ## 10 58855143  149.  150.  149.  150.  149. 1634875200000 437719
    ## # ... with 241 more rows
…
  
# Convert the data into JSON format and print it as a tibble
forex_parsed <- fromJSON(readLines(forex_call))
forex_result <- as_tibble(forex_parsed$results)
return(forex_result)
}

# Checking out the fucntion
forex_agg(forexTicker = 'C:EURUSD',from = '2021-11-10',to ='2022-10-09')
```

    ## # A tibble: 303 x 8
    ##         v    vw     o     c     h     l             t      n
    ##     <int> <dbl> <dbl> <dbl> <dbl> <dbl>         <dbl>  <int>
    ##  1 136207  1.15  1.16  1.15  1.16  1.15 1636502400000 136207
    ##  2  96929  1.15  1.15  1.14  1.15  1.14 1636588800000  96929
    ##  3 101922  1.14  1.14  1.14  1.15  1.14 1636675200000 101922
    ##  4   1163  1.14  1.14  1.14  1.14  1.14 1636848000000   1163
    ##  5 113029  1.14  1.14  1.14  1.15  1.14 1636934400000 113029
    ##  6 126931  1.14  1.14  1.13  1.14  1.13 1637020800000 126931
    ##  7 131097  1.13  1.13  1.13  1.13  1.13 1637107200000 131097
    ##  8 119989  1.13  1.13  1.14  1.14  1.13 1637193600000 119989
    ##  9 136971  1.13  1.14  1.13  1.14  1.12 1637280000000 136971
    ## 10 113927  1.13  1.13  1.12  1.13  1.12 1637539200000 113927
    ## # ... with 293 more rows
…
``` r
stock_grouped <- function(date,adjusted='true',include_otc='true'){
  call <- paste0('https://api.polygon.io/v2/aggs/grouped/locale/us/market/stocks/',date,'?adjusted=true','&apiKey=GMfXYkoPNPB30oC66QYexyFofBFhe1_t')
 
# Convert the data into JSON format and print it as a tibble
  parsed <- fromJSON(readLines(call))
  result <- as_tibble(parsed$results)
  return(result)
}

# Checking out the function
stock_grouped(date = '2021-10-01',adjusted = 'false',include_otc = 'false')
```

    ## # A tibble: 10,766 x 9
    ##    T           v     vw      o      c      h      l             t     n
    ##    <chr>   <dbl>  <dbl>  <dbl>  <dbl>  <dbl>  <dbl>         <dbl> <int>
    ##  1 MCEF     8052  20.7   20.7   20.8   20.9   20.7  1633118400000    33
    ##  2 BETZ   137510  31.0   30.4   31.1   31.2   30.4  1633118400000  1169
    ##  3 MYPS   366223   4.50   4.56   4.45   4.65   4.4  1633118400000  2552
    ##  4 GSpK    31102  28.2   28.2   28.2   28.4   28.1  1633118400000   253
    ##  5 SDOG    50169  51.7   51.4   51.9   52.2   51.1  1633118400000   317
    ##  6 HCII    15409   9.76   9.78   9.75   9.78   9.74 1633118400000    39
    ##  7 TIL    473989  18.8   18.0   19.1   19.2   17.5  1633118400000  5083
    ##  8 MAA    372343 189.   188.   189.   190.   185.   1633118400000 10163
    ##  9 DNA   9818501  11.4   11.7   11.5   11.7   11.2  1633118400000 37618
    ## 10 ENNV    49835   9.91   9.92   9.9    9.93   9.84 1633118400000    88
    ## # ... with 10,756 more rows
…
data_grouped <- stock_grouped(date = '2021-10-11',adjusted,include_otc )


# Combine the datas using a full join, and remove all missing values
mydata <- full_join(data_grouped,data_agg) %>%
          na.omit()

# Assign new names to the variables.
colnames(mydata) <- c('Symbol', 'tradingVolume','weightedVolPrice','openPrice','closePrice','highestPrice','lowestPrice','timeStamp','transactions')

print(mydata)
```

    ## # A tibble: 10,504 x 9
    ##    Symbol tradingVolume weight~1 openP~2 close~3 highe~4 lowes~5 timeS~6 trans~7
    ##    <chr>          <dbl>    <dbl>   <dbl>   <dbl>   <dbl>   <dbl>   <dbl>   <int>
    ##  1 TPLC          11400     35.3     35.2    35.1   35.5     35.1 1.63e12      97
    ##  2 GRIN         179290     14.6     14.4    14.5   14.9     14.3 1.63e12    1581
    ##  3 CTSH        1893402     75.7     75.2    75.4   76.4     75.2 1.63e12   23404
    ##  4 USAK         123866     15.7     15.6    15.8   15.9     15.5 1.63e12     754
    ##  5 GECC           7568.    20.3     20.5    20.3   20.5     20.2 1.63e12     450
    ##  6 KTEC           4723     19.8     19.8    19.5   19.8     19.5 1.63e12      32
    ##  7 STAF          16694     18.3     18.5    17.7   18.9     17.5 1.63e12     714
    ##  8 BHV            4823     18.0     18.8    17.1   18.8     17.1 1.63e12      37
    ##  9 PFN          116857     10.0     10.0    10.0   10.1     10   1.63e12     416
    ## 10 RCON         565232      2.46     2.5     2.4    2.53     2.4 1.63e12    2548
    ## # ... with 10,494 more rows, and abbreviated variable names
    ## #   1: weightedVolPrice, 2: openPrice, 3: closePrice, 4: highestPrice,
    ## #   5: lowestPrice, 6: timeStamp, 7: transactions
…
# Coerce the transType and priceLevel variables into  factors
mydata[11] <- as.factor(mydata$transType)
mydata[12] <- factor(mydata$priceLevel, levels = c(0,1), labels = c('cheap','expensive'))
print(mydata, width = 100)
```

    ## # A tibble: 10,504 x 12
    ##    Symbol tradingVolume weightedVolPrice openPrice closePrice highestPrice
    ##    <chr>          <dbl>            <dbl>     <dbl>      <dbl>        <dbl>
    ##  1 TPLC          11400             35.3       35.2       35.1        35.5 
    ##  2 GRIN         179290             14.6       14.4       14.5        14.9 
    ##  3 CTSH        1893402             75.7       75.2       75.4        76.4 
    ##  4 USAK         123866             15.7       15.6       15.8        15.9 
    ##  5 GECC           7568.            20.3       20.5       20.3        20.5 
    ##  6 KTEC           4723             19.8       19.8       19.5        19.8 
    ##  7 STAF          16694             18.3       18.5       17.7        18.9 
    ##  8 BHV            4823             18.0       18.8       17.1        18.8 
    ##  9 PFN          116857             10.0       10.0       10.0        10.1 
    ## 10 RCON         565232              2.46       2.5        2.4         2.53
    ##    lowestPrice     timeStamp transactions avgPrice transType priceLevel
    ##          <dbl>         <dbl>        <int>    <dbl> <fct>     <fct>     
    ##  1        35.1 1633982400000           97    35.3  low       cheap     
    ##  2        14.3 1633982400000         1581    14.6  low       cheap     
    ##  3        75.2 1633982400000        23404    75.8  low       cheap     
    ##  4        15.5 1633982400000          754    15.7  low       cheap     
    ##  5        20.2 1633982400000          450    20.3  low       cheap     
    ##  6        19.5 1633982400000           32    19.7  low       cheap     
    ##  7        17.5 1633982400000          714    18.2  low       cheap     
    ##  8        17.1 1633982400000           37    17.9  low       cheap     
    ##  9        10   1633982400000          416    10.0  low       cheap     
    ## 10         2.4 1633982400000         2548     2.46 low       cheap     
    ## # ... with 10,494 more rows
…
